Assignment 8
…
#Importing libraries and filtering for the year 2021. The `month` column was created and the changes were saved to a new dataframe. The dataframe is then grouped by `month` and `Country`. The total deaths for each month by country was calculated using summarise and taking the sum of the new deaths.

library(lubridate)
library(knitr)
df2 <- df %>% 
  filter(year(Date_reported) == 2021)

df2$month <- month(df2$Date_reported)

df2 <- df2 %>%
  group_by(month,Country) %>%
  summarise(total_deaths = sum(New_deaths))
df2

# A tibble: 2,844 × 3
# Groups:   month [12]
   month Country             total_deaths
   <dbl> <chr>                      <dbl>
 1     1 Afghanistan                  211
 2     1 Albania                      188
 3     1 Algeria                      137
 4     1 American Samoa                 0
 5     1 Andorra                       17
 6     1 Angola                        59
 7     1 Anguilla                       0
 8     1 Antigua and Barbuda            2
 9     1 Argentina                   5445
10     1 Armenia                      257
# ℹ 2,834 more rows

#Creating the variable rank and saving it to the dataframe with mutate. Filter was used to only list countries that are ranked in the top 10.

df2 <- df2 %>% 
  group_by(month) %>% 
  mutate(rank=rank(-total_deaths)) %>% 
  filter(rank <=10)
df2

# A tibble: 120 × 4
# Groups:   month [12]
   month Country                  total_deaths  rank
   <dbl> <chr>                           <dbl> <dbl>
 1     1 Brazil                          29985     4
 2     1 France                          16371     6
 3     1 Germany                         23808     5
 4     1 Italy                           14675     9
 5     1 Mexico                          38568     2
 6     1 Russian Federation              16163     7
 7     1 South Africa                    15918     8
 8     1 Spain                           12415    10
 9     1 The United Kingdom              36103     3
10     1 United States of America       100119     1
# ℹ 110 more rows
…
4. Make a bar race using a dataset of your own interest. You may use the dataset that we use in class (https://covidtracking.com/data/download/all-states-history.csv) but you should make a different bar racev from ones in the slides.

#Importing data with read_csv and saving it to a dataframe. Source: https://www.kaggle.com/datasets/sujaykapadnis/tornados

df <- read_csv("tornados.csv")
df

# A tibble: 68,693 × 27
      om    yr    mo    dy date       time   tz        datetime_utc        st   
   <dbl> <dbl> <dbl> <dbl> <date>     <time> <chr>     <dttm>              <chr>
 1   192  1950    10     1 1950-10-01 21:00  America/… 1950-10-02 03:00:00 OK   
 2   193  1950    10     9 1950-10-09 02:15  America/… 1950-10-09 08:15:00 NC   
 3   195  1950    11    20 1950-11-20 02:20  America/… 1950-11-20 08:20:00 KY   
 4   196  1950    11    20 1950-11-20 04:00  America/… 1950-11-20 10:00:00 KY   
 5   197  1950    11    20 1950-11-20 07:30  America/… 1950-11-20 13:30:00 MS   
 6   194  1950    11     4 1950-11-04 17:00  America/… 1950-11-04 23:00:00 PA   
 7   198  1950    12     2 1950-12-02 15:00  America/… 1950-12-02 21:00:00 IL   
 8   199  1950    12     2 1950-12-02 16:00  America/… 1950-12-02 22:00:00 IL   
 9   200  1950    12     2 1950-12-02 16:25  America/… 1950-12-02 22:25:00 AR   
10   201  1950    12     2 1950-12-02 17:30  America/… 1950-12-02 23:30:00 IL   
# ℹ 68,683 more rows
# ℹ 18 more variables: stf <dbl>, mag <dbl>, inj <dbl>, fat <dbl>, loss <dbl>,
#   slat <dbl>, slon <dbl>, elat <dbl>, elon <dbl>, len <dbl>, wid <dbl>,
#   ns <dbl>, sn <dbl>, f1 <dbl>, f2 <dbl>, f3 <dbl>, f4 <dbl>, fc <lgl>

#Grouping the dataframe by year and state, the summarise function was used to compare the average magnitude by state in each year.

df2 <- df %>%
  group_by(yr,st) %>%
  summarise(avg_magnitude = mean(mag))
df2

# A tibble: 3,133 × 3
# Groups:   yr [73]
      yr st    avg_magnitude
   <dbl> <chr>         <dbl>
 1  1950 AL             2.5 
 2  1950 AR             2.33
 3  1950 CO             1   
 4  1950 CT             2   
 5  1950 FL             1.17
 6  1950 GA             0.75
 7  1950 IA             2   
 8  1950 IL             1.88
 9  1950 IN             1   
10  1950 KS             1.47
# ℹ 3,123 more rows

#Creating the variable `rank` and saving it as a column to the dataframe with mutate. The filter function was used to limit the dataframe to only the states with a top 10 magnitude.

df2 <- df2 %>% 
  group_by(yr) %>% 
  mutate(rank=rank(-avg_magnitude)) %>% 
  filter(rank <=10)
df2

# A tibble: 728 × 4
# Groups:   yr [73]
      yr st    avg_magnitude  rank
   <dbl> <chr>         <dbl> <dbl>
 1  1950 AL             2.5    2  
 2  1950 AR             2.33   4  
 3  1950 CT             2      6.5
 4  1950 IA             2      6.5
 5  1950 IL             1.88   9  
 6  1950 MN             2      6.5
 7  1950 ND             3      1  
 8  1950 OH             2      6.5
 9  1950 TX             1.8   10  
10  1950 WI             2.4    3  
# ℹ 718 more rows
…
